{"id":1,"name":"Sachin-1", "age":20}
{"id":2,"name":"Sachin-2", "age":20}
{"id":3,"name":"Sachin-3", "age":20}
{"id":4,"name":"Sachin-4", "age":20}
{"id":5,"name":"Sachin-5", "age":20}
{"id":6,"name":"Sachin-6", "age":20}
{"id":7,"name":"Sachin-7", "age":20}
{"id":8,"name":"Sachin-8", "age":20}
{"id":9,"name":"Sachin-9", "age":20}
{"id":10,"name":"Sachin-10", "age":20}
{"id":11,"name":"Sachin-11", "age":20}
{"id":12,"name":"Sachin-12", "age":20}
{"id":13,"name":"Sachin-13", "age":20}
{"id":14,"name":"Sachin-14", "age":20}
{"id":15,"name":"Sachin-15", "age":20}
{"id":16,"name":"Sachin-16", "age":20}
{"id":17,"name":"Sachin-17", "age":20}
{"id":18,"name":"Sachin-18", "age":20}
{"id":19,"name":"Sachin-19", "age":20}
{"id":20,"name":"Sachin-20", "age":20}
